###keys
next pc[p1] pc[p2] place[p1] place[p2] array[0] array[1]

###textDisplay
queue::::REV::::_ _
tmp[p1]::::REV::::_ _
tmp[p2]::::REV::::_ _

###states
(next: 0 (pc[p1]: rs) (pc[p2]: rs) (place[p1]: 0) (place[p2]: 0) (array[0]: true) array[1]: false) ||
(next: 0 (pc[p1]: l1) (pc[p2]: rs) (place[p1]: 0) (place[p2]: 0) (array[0]: true) array[1]: false) ||
(next: 0 (pc[p1]: l1) (pc[p2]: l1) (place[p1]: 0) (place[p2]: 0) (array[0]: true) array[1]: false) ||
(next: 1 (pc[p1]: ws) (pc[p2]: l1) (place[p1]: 0) (place[p2]: 0) (array[0]: true) array[1]: false) ||
(next: 0 (pc[p1]: ws) (pc[p2]: ws) (place[p1]: 0) (place[p2]: 0) (array[0]: true) array[1]: false) ||
(next: 0 (pc[p1]: cs) (pc[p2]: ws) (place[p1]: 0) (place[p2]: 0) (array[0]: true) array[1]: false) 



